name,position,department_id,company_id
LESTER NAPIGKIT,WAREHOUSEMAN                  ,LOGISTIC DEPARTMENT - WAREHOUSING,HOMEWORLD
HERNANI HILARIO,DUMP TRUCK DRIVER,OPERATIONS - BAGO CRUSHER,HOMEWORLD
JOSE NOLI MAQUILAN,SERVICE VEHICLE DRIVER/COLLECTOR/MESSENGER   ,OPERATIONS,HOMEWORLD
ROSALIE ZALDIVAR,LIAISON OFFICER (MANILA)      ,OPERATIONS,HOMEWORLD
CARMEN VILLANUEVA,HEAD CASHIER/OIC - VOP,VOP - SALES,PROXIMA
Adonis Tingson,WAREHOUSEMAN ,OPERATIONS,PROXIMA
ROSEMARIE JIMENA,HOUSEMAID,,CAPVILLE
Karl Anthony Jimenez,Network Administrator,IT,GC&C
Ricardo Estruche,Payloader Operator ,OPERATIONS,PROXIMA
Reynaldo Dequinan,Watchman ,OPERATIONS - SITE MOTORPOOL,PROXIMA
Orlando Villafor,Watchman ,OPERATIONS,PROXIMA
FLORIAN TRONCO,Admin Manager ,ADMIN,GC&C
Boysol Matubang,Equipment in charge ,LOGISTIC - FUEL & EQUIPMENT,GC&C
Arren Terese Gamilla,Finance Assistant ,FINANCE,PROXIMA
DARY PULA, DISPATCHING OFFICER/LIAISON OFFICER/WAREHOUSE ASSISTANT,OPERATIONS,PROXIMA
WENNONAH NICAVERA,COST ACCOUNTANT ,FINANCE,GC&C
SELWYN ROSS MONTES,HR DISCIPLINE/RECRUITMENT,HRD,GC&C
JEANNE BETH PESCADILLA,CASHIER ,CROSSCAP,CROSSCAP
