creditor_id,amount,deduction
5108074,6576.66,1
5210966,3925.49,
5108399,3016.74,
5210649,1992.46,
5210667,1741,2
5210955,3052.33,
5211081,4439.21,
5210062,1496.14,3
5210585,3071.4,
5107551,6404.32,
5210514,338.2,
5210653,5124.61,
5108261,3064.34,4
5210704,4833.91,
5210941,2896.59,5
5210568,4573.89,
5108325,6484.5,
5210864,2911.17,
5210136,5625.49,
5210114,2895.1,
5210184,2392.62,
5107942,4099.67,
5107774,2842.57,
5210644,2935.61,
5210068,6006.9,
5210199,4861.49,
5108403,1790.72,
5210065,4649.37,
5107765,5354.67,
5211031,3987.75,
5107523,0,
5107811,0,
5210994,4587.22,
5210992,2755.64,
5210694,2592.86,
5210505,2787.06,
5210995,2784.73,
5108206,4446.97,
5210190,1203.35,
5210847,1699.01,
5210865,7324.65,
5108492,5109.41,
5211019,4280.87,
5210631,0,
5107412,2890.17,
5211033,0,
5108134,603.92,
5210586,4747.93,
5108534,2284.43,
5210048,6769.69,
5210647,7104.34,
5107930,0,
5210685,3105.39,
5210837,3153.74,
5211060,3830.59,
5210119,3509.78,
5211022,5951.46,
5210508,6088.84,
5210584,583.62,
8107405,10013.95,
5107775,8770.22,
5107414,3068.17,
5107879,2459.98,
5211012,913.19,
5210191,669.89,
5210932,4784.85,
5210023,8279.05,
5107400,1007.07,
5108291,3665.22,
5210520,4497.17,
5210934,5103.26,
5108473,3108.94,
5107912,4260.49,
5210109,6643.75,
5210965,3902.71,
5210854,4787.35,
5210625,3046.84,
5108190,0,
5210637,2477.38,
5210179,5573.74,
5107708,4329.82,
5107409,4141,
5210620,4464.53,
5211093,5004.23,
5211073,1444.01,
5211058,4924.34,
5211076,88.17,
5210108,3178.87,
5107709,7054.53,
5108381,2875.66,
5211036,2850.79,
5210507,6975.28,
5210663,5962.46,
5210178,3984.58,
5210839,5007.58,
5210306,3626.97,
5210875,7165.1,
5210635,6783.54,
5210608,3916.8,
5107446,0,
5107929,1844.73,
5210162,720.52,
5210972,3661.54,
5107500,1197.43,
5108490,4400.55,
5210166,5618.03,
5108199,1363.71,
5210303,3907.12,
5108357,5228.7,
5210580,3837.85,
5107873,3049.96,
5210305,2531.7,
5210560,0,
5211042,5627.09,
5108056,6688.28,
5210967,3251.21,
5210545,5076.47,
5210969,7264.37,
5210985,4546.44,
5210872,396.46,
5107823,1311.3,
5211066,1420.07,
5211020,3792.96,
5210929,5800.51,
5210137,4008.6,
5210198,1343.82,
5210687,5627.52,
5210883,1784.88,
5210668,2581.97,
5210964,2026.66,
5210530,5902.72,
5210189,4339.65,
5210519,4133.99,
5107152,2533.6,
5210949,5458.23,
5107960,4258.14,
5210165,5137.17,
5211067,4639.3,
5211045,2946.2,
5210722,511.83,
5210573,7316.52,
5108044,5364.12,
5211064,2581.28,
5210569,6132.38,
5211070,4575.62,
5108501,5815.29,
5107754,5251.42,
5108121,6910.37,
5107569,5455.13,
5211074,216.21,
5107319,3183.67,
5107758,2327.29,
5210129,2158.11,
5210698,5799.74,
5108014,3105.63,
5210617,4203.57,
5108371,14724.35,
5210633,270.41,
5211059,6000.51,
5210859,3080.45,
5107866,1056.8,
5107527,397.45,
5210675,5084.71,
5210130,4150.82,
5210103,3005.67,
5210914,6312.88,
5210509,3500.15,
5210013,2043.09,
5107746,3411.05,
5108463,5762.8,
5210962,6010.49,
5210550,7656.29,
5210555,1819.2,
5107516,5383.66,
5211023,2473.3,
5210516,3453.18,
5210660,3643.35,
5210557,468.22,
5210841,239.28,
5210591,5205.45,
5210610,6457.98,
5211055,1035.35,
5210906,1368.71,
5107897,6811.08,
5210937,6488.48,
5210565,2725.13,
5107809,5525.62,
5210020,6469.61,
5210943,4368.43,
5210933,1295.93,
5108071,4660.6,
5107338,500,
5107574,1142.81,
5210304,1006.1,
5210993,845.27,
5210646,5055.62,
5210177,5607.69,
5210045,5173.7,
5210552,4690.29,
5107874,919.15,
5210896,5956.52,
5210526,212.05,
5210533,3089.98,
5108386,8050.16,
5210612,4663.98,
5210022,898.22,
5107323,3378.91,
5211037,4999.33,
5210525,875.26,
5108205,2862.81,
5211013,710.85,
5210622,2427.82,
5210930,3140.55,
5210683,4784.28,
5210301,0,
5210140,4535.07,
5211057,2855.26,
5108143,170.31,
5210884,2338.73,
5107595,6749.99,
5210960,3345.62,
5210652,4646.64,
5107653,1531.15,
5210619,7263.93,
5108113,2433.73,
5107986,2729.89,
5210205,5366.54,
5108273,3322.66,
5210302,4676.21,
5210701,4459.6,
5107695,6221.83,
5107717,2188.53,
5107526,5633.74,
5210858,6508.98,
5210522,4519.43,
5210658,0,
5210888,1638.24,
5108497,3052.41,
5210075,3612.15,
5108136,3253.97,
5107490,641.39,
5210064,1356.91,
5211061,4949.75,
5108062,6362.95,
5210593,5634.54,
5211094,5822.04,
5108193,5888.2,
5210968,1602.91,
5107506,5011.59,
5210624,3893.43,
5107730,949.65,
5108354,4354.41,
5108298,6576.16,
5210611,3542.39,
5210004,435.24,
5210878,5266.08,
5210195,0,
5107931,3303.08,
5210627,6218.04,
5108353,3638.39,
5210576,2648.34,
5108129,4737.06,
5107814,134.4,
5211078,2064.94,
5107322,2043.68,
5211065,3070.6,
5210654,4709.89,
5107798,5054.59,
5107570,3396.25,
5210870,1776.63,
5210046,6349.71,
5210848,5660.46,
5210089,4128.2,
5210897,2107.2,
5210529,7603.78,
5210849,4202.36,
5210645,3362.55,
5211075,2018.65,
5210860,2405.39,
5210059,601.27,
5210910,3543.32,
5210167,7477.58,
5108003,5756.11,
5107724,923.73,
5210889,0,
5107856,120.64,
5210117,4052.78,
5210669,1195.53,
5210030,4790.26,
5107573,2719.89,
5210961,4754.73,
5210532,3017.52,
5210201,7151.28,
5210122,6455.62,
5210623,1916.78,
5210596,3259.35,
5104176,0,
5210882,3545.94,
5210867,1975.19,
5210958,2285.81,
5108272,5878.98,
5210957,6774.56,
5210887,1912.51,
5108384,4641.41,
5108132,2498.72,
5210885,1318.38,
5211032,0,
5210604,3088.88,
5108472,836.04,
5107729,6699.93,
5211034,5406.7,
5107898,5157.45,
5107124,500,
5210116,5139.95,
5107555,1725.28,
5107859,2946.08,
5210880,204.92,
5210523,1019.92,
5210163,3844.04,
5108186,2859.06,
5210506,5915.6,
5210554,6720.57,
5210511,3865.64,
5107251,3907.17,
5210528,688,
5210515,740.51,
5107710,3151.66,
5108465,0,
5108466,2780.89,
5210963,4926.55,
5107619,5184.53,
5108204,4119.68,
5210164,7550.59,
5210662,1529.01,
5211021,2277.36,
5210868,3887.92,
5107360,3886.74,
5107979,7203.71,
5107870,9062.8,
5108207,3556.02,
5210186,6645.76,
5210597,2401.47,
5210203,3017.11,
5107496,5152.36,
5108507,3980.8,
5210621,3192.77,
5210107,1791.09,
5211072,5100.78,
5108144,1827,
5210002,7516.56,
5210907,4180.04,
5210661,5513.67,
5107370,552.23,
5107995,6749.95,
5210643,4982.34,
5107532,2955.16,
5210618,964.6,
5108395,4611.53,
5107719,3074.39,
5210886,2850.6,
5107767,5116.52,
5210634,5768.4,
5210517,4671.5,
5210193,5637.89,
5210548,7637.7,
5210575,5282.62,
5210588,383.55,
5211016,4311.46,
5211015,3502.25,
5210590,1590.58,
5210589,6503.6,
5107503,7952.61,
5210056,5410.97,
5210996,924.67,
5210942,1952.31,
5108060,6929.3,
5210527,4672.68,
5210989,5124.96,
5210988,1137.5,
5108500,5313.15,
5210549,4677.71,
5210842,6239.13,
5107971,1197.78,
5210574,4849.69,
5210571,3455.04,
5210676,7225.59,
5107913,3980.21,
5210881,1272.39,
5107704,2889.74,
5210944,1594.06,
5107310,4243.47,
5210703,2781.91,
5107896,0,
5107376,0,
5210053,2005.22,
5210567,6078.19,
5210513,1902.65,
5107802,1958.69,
5210688,5047.42,
5210570,577.29,
5107985,0,
5106940,1390.13,
5107658,2819.85,
5104102,10940.95,
5107963,4627.41,
5104346,10069.63,
5211000,4639.48,
5210542,5542.33,
5105200,5439.6,
5105099,9419.05,
5104890,1334.08,
5210953,8720.53,
6103956,5404.79,
5210923,6828.06,
5107205,3776.76,
5103954,4521.18,
7105371,161.06,
5107012,10343.26,
5107290,4949.74,
5107577,4245.7,
5210861,461.47,
5210729,3015.63,
5108417,2882.39,
5210168,1937.47,
5210730,4307.19,
5107492,8515.69,
5105119,12384.75,
5104311,4980.25,
5210639,6252.77,
5211087,3143.89,
5210975,1835.57,
5210935,1955.4,
5210891,3921.75,
5108397,5958.58,
5107522,5286.84,
5107672,4104.49,
5107742,560.03,
5210926,5178.09,
5210991,8703.55,
5107379,4422.46,
5103568,8089.29,
5210401,3585.22,
5210913,8135.81,
5105196,2317.5,
5210400,9063.2,
5210925,733.31,
5210905,1226.72,
5210673,4733.87,
5210706,2179.27,
5107576,1117.68,
5211025,2748.18,
5210032,1626.65,
5107227,0,
5210209,2322.74,
5107099,3415.09,
5210876,1706.59,
5107458,67.54,
5210409,1356.02,
5211090,4758.61,
5107564,8278.91,
5210559,1039.56,
5211028,2437.02,
5210915,6169.66,
5210731,4937.48,
5210833,5760.28,
5105202,1995.45,
5211006,7514.54,
5105247,7779.16,
5108477,7532.7,
5108054,5583.05,
5107669,6729.29,
5210699,4335.21,
5104988,8608.14,
5210544,6069.12,
5105300,4627.3,
5107331,7757.89,
5210726,7172.27,
5210707,6134.7,
5106958,8508.72,
5108263,4534.34,
5210071,4523.59,
5106770,4296.29,
5210727,4107.05,
5106201,3102.98,
5108478,6591.38,
5210087,9674.84,
5210128,4366.73,
5210021,5796.78,
5107956,8701.85,
5108270,6779.46,
5107421,5974.64,
5106762,5368.28,
5210928,6313.24,
5211018,5059.06,
5210982,3544.63,
5107786,3808.15,
5210856,9716.88,
5210025,9672.85,
5105278,2725.75,
5210602,3263.2,
5210540,3691.64,
5107478,4919.3,
5105182,6714.72,
5210626,165.6,
5108247,6413.17,
5210076,2966.78,
5210582,2345.31,
5210008,5906.85,
5107228,2079.34,
7105194,5481.38,
5107567,4915.66,
5211024,5206.27,
5108034,2939.81,
5108248,3963.3,
5108474,1826.38,
5107301,588.25,
5211052,8075.43,
5211083,4455.97,
5211047,7566.27,
5211092,6934.91,
5108486,5064.09,
5107206,8255.94,
5210072,3899.86,
5105274,5088.34,
5107959,9065.86,
5106949,867.13,
5211004,3822.77,
5107838,7760.19,
5210144,3284.62,
5211053,4006.46,
5210728,3045.48,
5210614,2443.88,
5210595,4892.73,
5107051,5756.98,
5107585,6649.63,
5210709,5077.94,
5107610,4302.72,
5106733,3642.7,
5107584,4879.44,
5210710,7670.96,
5107848,4285.48,
5108042,5911.93,
5107850,7799.67,
5211008,4870.05,
5107277,4651.88,
5210846,5140.45,
7106599,0,
5108284,8339.9,
5108487,7766.37,
5106966,13896.34,
5103968,4589.96,
5107275,6066.76,
5108029,0,
5108019,4668.8,
5211063,3989.92,
5104886,16563.49,
5210088,7475.18,
5107077,6199.74,
5211011,5636.82,
5106787,2095.63,
5106979,8027.56,
5210402,4451.37,
5210159,2127.25,
5107248,3867.03,
5107591,5894.61,
5210096,7089.39,
5106206,0,
5210893,4421.21,
5210152,1920.52,
5108333,3924.29,
5210678,9809.43,
5108489,0,
5210976,6268.5,
5105190,1829.3,
5210938,10258.61,
5210981,6948.47,
5210147,1304.68,
5210300,3261.78,
5210642,3576.94,
5108234,7092.45,
5210974,4646.09,
5107702,5679.57,
5210609,5684.64,
5107065,3689.44,
5211014,4081.89,
5210700,2732.76,
5108304,7515.9,
5210980,4501.83,
5106803,6251.9,
5107787,500,
5210044,0,
5210535,6885.09,
5107304,7856.16,
5107236,9238.51,
5210984,2561.56,
5107690,5434.87,
5210983,3658.9,
5210097,4236.37,
5103827,8859.94,
5210666,5367.52,
5210674,8016.65,
5210844,2549.91,
5104074,3054.7,
5105210,1557.91,
5210916,3439.78,
5105117,12755.88,
5107629,1227.61,
5105144,7199.76,
5107250,500,
5210712,888.79,
5106777,15377.04,
5106200,5296.93,
5108043,0,
5210863,43.41,
5210082,6265.76,
5105181,9612.96,
5107335,2408.25,
5210940,2247.38,
5210879,3885.83,
5106970,5838.32,
5104975,2368.3,
5210039,3886.04,
5210686,8364.02,
5210656,7615.29,
5107352,1457.91,
5107674,2222.99,
5107697,7237.71,
5107642,500,
5105193,3931.17,
5211001,6930.42,
5106914,4202.61,
5104893,3735.98,
5211054,3189.33,
5107836,4282.36,
5210986,5907.06,
5211091,5372.85,
5108328,3159.8,
5106788,3071.79,
5210156,5594.11,
5107371,4705.88,
5210877,3636.53,
5107661,2583.01,
5108390,4489.17,
5210903,7494.27,
5210939,2928.25,
5210100,3507.99,
5107904,6991.54,
5210120,3474.05,
5106708,3737.57,
5210951,7658.73,
5106933,500,
5210852,7907.72,
5210894,4678.99,
5108411,5991.93,
5211050,2470.55,
5211089,5348.75,
5105316,668.48,
5210680,6938.94,
5210028,5277.88,
5107611,4939.33,
5210029,3768.46,
5108259,6121.11,
5210895,3694.07,
5210078,7311.64,
5210832,4002.87,
5211080,7254.83,
5210127,5973.12,
5210836,4989.55,
5105276,7127.16,
5210007,4055.07,
5210971,6991.41,
5107336,5661.55,
5108413,3463.95,
5210630,5959.98,
5106811,9410.88,
5107344,9543.32,
5107212,1726.56,
5107270,4330.96,
5211044,2346.4,
5210403,551.59,
5210034,1274.47,
5210536,4438.58,
5107151,11292.61,
5210173,5654.94,
5106988,3766.86,
5107716,418.47,
5210912,4813.06,
5107586,4834.21,
5210947,7874.41,
5108480,4918.75,
5210539,4973.1,
5211049,7492.73,
5210578,742.83,
5210546,2492.3,
5210954,8307.71,
5210665,7256.23,
5210691,7607.31,
5104764,2226.82,
5211088,5747.63,
5104192,8718.32,
5105203,1916.2,
5108331,3721.96,
5108475,0.77,
5104194,19939.92,
5107683,0,
5210192,1178.6,
5211048,3832.84,
5108036,3491.81,
5210510,8146.37,
5211041,6435.06,
5105218,8471.24,
5210950,1507.11,
5211062,5536.78,
5210956,5923.69,
5210901,3282.03,
5210713,5108.3,
5105206,124.44,
5108442,6023.64,
5210979,5645.17,
5107529,6098.53,
5107470,3274.73,
5210851,1277.28,
5107220,7206.12,
5106957,8340.19,
5107263,7350.57,
5210176,3968.03,
5210904,9926.16,
5210714,2780.23,
5105671,2924.32,
5107703,5593.57,
5211005,2316.25,
5211077,3346.6,
5211069,6317.73,
5107266,9371.16,
5106786,8624.07,
5211010,3102.56,
5107590,9019.74,
5106935,0,
5108275,1132.24,
5108484,5250.04,
5107467,2414.56,
5104404,2962.53,
6104157,500,
5211002,5970.34,
5210720,2584.2,
5210125,0,
5211079,5054.28,
5210579,4634.39,
5108449,3811.14,
5210090,1216.11,
5210017,0,
5210715,5424.89,
5107164,1288.74,
5210051,2855.9,
5106785,3740.93,
5106734,6347.49,
5107358,5358.64,
5211084,5770.37,
5211046,5884.57,
5210857,548.4,
5107329,3492.75,
5107671,4164.31,
5210157,5857.89,
5210850,5570.43,
5105201,4603.37,
5210690,9250.75,
5211029,1278.47,
5107906,4378.39,
5108262,2105.39,
